{
  "arch": null,
  "build": "pyhd3eb1b0_0",
  "build_number": 0,
  "depends": [
    "brotlipy >=0.6.0",
    "certifi",
    "cryptography >=1.3.4",
    "idna >=2.0.0",
    "pyopenssl >=0.14",
    "pysocks >=1.5.6,<2.0,!=1.5.7",
    "python >=3.6,<4.0"
  ],
  "license": "MIT",
  "license_family": "MIT",
  "name": "urllib3",
  "noarch": "python",
  "platform": null,
  "subdir": "noarch",
  "timestamp": 1633616671240,
  "version": "1.26.7"
}