{
  "build": "py39h27cfd23_1",
  "build_number": 1,
  "channel": "https://repo.anaconda.com/pkgs/main/linux-64",
  "constrains": [],
  "depends": [
    "libgcc-ng >=7.3.0",
    "python >=3.9,<3.10.0a0",
    "six",
    "tqdm"
  ],
  "extracted_package_dir": "/workspace/Apps/miniconda3/pkgs/conda-package-handling-1.7.3-py39h27cfd23_1",
  "features": "",
  "files": [
    "bin/cph",
    "lib/python3.9/site-packages/conda_package_handling-1.7.3.dist-info/AUTHORS.txt",
    "lib/python3.9/site-packages/conda_package_handling-1.7.3.dist-info/INSTALLER",
    "lib/python3.9/site-packages/conda_package_handling-1.7.3.dist-info/LICENSE",
    "lib/python3.9/site-packages/conda_package_handling-1.7.3.dist-info/METADATA",
    "lib/python3.9/site-packages/conda_package_handling-1.7.3.dist-info/RECORD",
    "lib/python3.9/site-packages/conda_package_handling-1.7.3.dist-info/REQUESTED",
    "lib/python3.9/site-packages/conda_package_handling-1.7.3.dist-info/WHEEL",
    "lib/python3.9/site-packages/conda_package_handling-1.7.3.dist-info/direct_url.json",
    "lib/python3.9/site-packages/conda_package_handling-1.7.3.dist-info/entry_points.txt",
    "lib/python3.9/site-packages/conda_package_handling-1.7.3.dist-info/top_level.txt",
    "lib/python3.9/site-packages/conda_package_handling/__init__.py",
    "lib/python3.9/site-packages/conda_package_handling/__main__.py",
    "lib/python3.9/site-packages/conda_package_handling/__pycache__/__init__.cpython-39.pyc",
    "lib/python3.9/site-packages/conda_package_handling/__pycache__/__main__.cpython-39.pyc",
    "lib/python3.9/site-packages/conda_package_handling/__pycache__/_version.cpython-39.pyc",
    "lib/python3.9/site-packages/conda_package_handling/__pycache__/api.cpython-39.pyc",
    "lib/python3.9/site-packages/conda_package_handling/__pycache__/archive_utils.cpython-39.pyc",
    "lib/python3.9/site-packages/conda_package_handling/__pycache__/cli.cpython-39.pyc",
    "lib/python3.9/site-packages/conda_package_handling/__pycache__/conda_fmt.cpython-39.pyc",
    "lib/python3.9/site-packages/conda_package_handling/__pycache__/exceptions.cpython-39.pyc",
    "lib/python3.9/site-packages/conda_package_handling/__pycache__/interface.cpython-39.pyc",
    "lib/python3.9/site-packages/conda_package_handling/__pycache__/tarball.cpython-39.pyc",
    "lib/python3.9/site-packages/conda_package_handling/__pycache__/utils.cpython-39.pyc",
    "lib/python3.9/site-packages/conda_package_handling/__pycache__/validate.cpython-39.pyc",
    "lib/python3.9/site-packages/conda_package_handling/_version.py",
    "lib/python3.9/site-packages/conda_package_handling/api.py",
    "lib/python3.9/site-packages/conda_package_handling/archive_utils.py",
    "lib/python3.9/site-packages/conda_package_handling/archive_utils_cy.cpython-39-x86_64-linux-gnu.so",
    "lib/python3.9/site-packages/conda_package_handling/cli.py",
    "lib/python3.9/site-packages/conda_package_handling/conda_fmt.py",
    "lib/python3.9/site-packages/conda_package_handling/exceptions.py",
    "lib/python3.9/site-packages/conda_package_handling/interface.py",
    "lib/python3.9/site-packages/conda_package_handling/tarball.py",
    "lib/python3.9/site-packages/conda_package_handling/utils.py",
    "lib/python3.9/site-packages/conda_package_handling/validate.py"
  ],
  "fn": "conda-package-handling-1.7.3-py39h27cfd23_1.conda",
  "legacy_bz2_md5": "e1703901c9c5c3f4b602f615cdf51267",
  "legacy_bz2_size": 990627,
  "license": "BSD-3-Clause",
  "license_family": "BSD",
  "link": {
    "source": "/workspace/Apps/miniconda3/pkgs/conda-package-handling-1.7.3-py39h27cfd23_1",
    "type": 1
  },
  "md5": "20631b5b77d257cecd8375cdcc1f30bf",
  "name": "conda-package-handling",
  "package_tarball_full_path": "/workspace/Apps/miniconda3/pkgs/conda-package-handling-1.7.3-py39h27cfd23_1.conda",
  "paths_data": {
    "paths": [
      {
        "_path": "bin/cph",
        "file_mode": "text",
        "path_type": "hardlink",
        "prefix_placeholder": "/tmp/build/80754af9/conda-package-handling_1618262147379/_h_env_placehold_placehold_placehold_placehold_placehold_placehold_placehold_placehold_placehold_placehold_placehold_placehold_placehold_placehold_placehold_placehold_placehold_placehold_placehold_p",
        "sha256": "8d54331a77de5061c1ad1aea8d9e0dffde2173768ff2d26c4af475cee14a4b5f",
        "sha256_in_prefix": "66da26fe706a145f5195c1bf5e6bfb8a73a532241c740922e8c5ee9e93806907",
        "size_in_bytes": 479
      }
    ],
    "paths_version": 1
  },
  "requested_spec": "conda-package-handling==1.7.3=py39h27cfd23_1",
  "sha256": "8e3e4668f0418286a47da12510b4af2b57e9af25dc3f6c4bfd87b14ea03ced63",
  "size": 904754,
  "subdir": "linux-64",
  "timestamp": 1618262196863,
  "track_features": "",
  "url": "https://repo.anaconda.com/pkgs/main/linux-64/conda-package-handling-1.7.3-py39h27cfd23_1.conda",
  "version": "1.7.3"
}