{
  "paths": [
    {
      "_path": "lib/python3.9/site-packages/_distutils_hack/__init__.py",
      "path_type": "hardlink",
      "sha256": "5f7454880e8a04fa0499ca3f0a3002ca5b7241b15119552965101b4a43c6c0cb",
      "size_in_bytes": 3688
    },
    {
      "_path": "lib/python3.9/site-packages/_distutils_hack/__pycache__/__init__.cpython-39.pyc",
      "path_type": "hardlink",
      "sha256": "69c94331f3247fe36a1cdb4b96c5dc868a999fd20b2c3daf03ef1b8ff449c8a0",
      "size_in_bytes": 5066
    },
    {
      "_path": "lib/python3.9/site-packages/_distutils_hack/__pycache__/override.cpython-39.pyc",
      "path_type": "hardlink",
      "sha256": "20130f5f892cd8a8bb2a6959238450efd4e1731b8dcab119dd62faf82146810a",
      "size_in_bytes": 197
    },
    {
      "_path": "lib/python3.9/site-packages/_distutils_hack/override.py",
      "path_type": "hardlink",
      "sha256": "12efecf8d17a5486780aa774b5b6c0e70b56932d8864f35df1eb7a18bb759b3a",
      "size_in_bytes": 44
    },
    {
      "_path": "lib/python3.9/site-packages/distutils-precedence.pth",
      "path_type": "hardlink",
      "sha256": "7ea7ffef3fe2a117ee12c68ed6553617f0d7fd2f0590257c25c484959a3b7373",
      "size_in_bytes": 152
    },
    {
      "_path": "lib/python3.9/site-packages/pkg_resources/__init__.py",
      "path_type": "hardlink",
      "sha256": "3f73cd377fe6f0926b60ca7e8be4aafb7ae12b9bee562aaa8e7d545ca1df7bb4",
      "size_in_bytes": 108202
    },
    {
      "_path": "lib/python3.9/site-packages/pkg_resources/__pycache__/__init__.cpython-39.pyc",
      "path_type": "hardlink",
      "sha256": "941d63c17462bcdcece79c1b7488731b000583a5d8d9f6edd623f84bcc49d934",
      "size_in_bytes": 100398
    },
    {
      "_path": "lib/python3.9/site-packages/pkg_resources/_vendor/__init__.py",
      "path_type": "hardlink",
      "sha256": "e3b0c44298fc1c149afbf4c8996fb92427ae41e4649b934ca495991b7852b855",
      "size_in_bytes": 0
    },
    {
      "_path": "lib/python3.9/site-packages/pkg_resources/_vendor/__pycache__/__init__.cpython-39.pyc",
      "path_type": "hardlink",
      "sha256": "cd2f39db2f9698bd76372b332fe21154b9e3db70e42732b9119392b154b63faf",
      "size_in_bytes": 152
    },
    {
      "_path": "lib/python3.9/site-packages/pkg_resources/_vendor/__pycache__/appdirs.cpython-39.pyc",
      "path_type": "hardlink",
      "sha256": "8ead64595ee891576c138b573e3bde05245b291c3609de56e430fd19d08c0b35",
      "size_in_bytes": 20469
    },
    {
      "_path": "lib/python3.9/site-packages/pkg_resources/_vendor/__pycache__/pyparsing.cpython-39.pyc",
      "path_type": "hardlink",
      "sha256": "f83dd2d07b217641310e23190fb7368fc5a54cd75bfe950bcf21b64ac973b8fb",
      "size_in_bytes": 201306
    },
    {
      "_path": "lib/python3.9/site-packages/pkg_resources/_vendor/appdirs.py",
      "path_type": "hardlink",
      "sha256": "3227af504bafde5fe6408487e52174b210e4fc13611c7cd88803eb4f72133782",
      "size_in_bytes": 24701
    },
    {
      "_path": "lib/python3.9/site-packages/pkg_resources/_vendor/packaging/__about__.py",
      "path_type": "hardlink",
      "sha256": "3cd32c6999f851c087cae6e044e1f56e5e8296e76e3e3239905ad2a7f660925a",
      "size_in_bytes": 736
    },
    {
      "_path": "lib/python3.9/site-packages/pkg_resources/_vendor/packaging/__init__.py",
      "path_type": "hardlink",
      "sha256": "e9e9dba795e045f8c18ec23df9b9f4d078c77f94c7db53c330e2a4256f31c3ec",
      "size_in_bytes": 562
    },
    {
      "_path": "lib/python3.9/site-packages/pkg_resources/_vendor/packaging/__pycache__/__about__.cpython-39.pyc",
      "path_type": "hardlink",
      "sha256": "7179b5cf809445b2b6ac1242da1a2856c4b68e4870f02c768cc8d47aa8171ab8",
      "size_in_bytes": 668
    },
    {
      "_path": "lib/python3.9/site-packages/pkg_resources/_vendor/packaging/__pycache__/__init__.cpython-39.pyc",
      "path_type": "hardlink",
      "sha256": "5db7758e0d13a630d88202ae1dc786dac2f5e5b7c183cf2432f236e24d971f7f",
      "size_in_bytes": 514
    },
    {
      "_path": "lib/python3.9/site-packages/pkg_resources/_vendor/packaging/__pycache__/_compat.cpython-39.pyc",
      "path_type": "hardlink",
      "sha256": "422d15e41b887c526e60483db2c0742fa19b44d31a02f8300b7c083bac23735c",
      "size_in_bytes": 1112
    },
    {
      "_path": "lib/python3.9/site-packages/pkg_resources/_vendor/packaging/__pycache__/_structures.cpython-39.pyc",
      "path_type": "hardlink",
      "sha256": "a3c629e24ae3d45d9bd0e8da8eabeb34d240de42180f78eccc1b0f04721faaad",
      "size_in_bytes": 2866
    },
    {
      "_path": "lib/python3.9/site-packages/pkg_resources/_vendor/packaging/__pycache__/_typing.cpython-39.pyc",
      "path_type": "hardlink",
      "sha256": "9b6f016e877af1e8a68b2a3b94f49aacf16f8797ce876ca5453e564a0568c21d",
      "size_in_bytes": 1457
    },
    {
      "_path": "lib/python3.9/site-packages/pkg_resources/_vendor/packaging/__pycache__/markers.cpython-39.pyc",
      "path_type": "hardlink",
      "sha256": "43ca1ef9b8b2c78be0c2b9ab76da9681dc296102cf491c510e2c22853416153a",
      "size_in_bytes": 9273
    },
    {
      "_path": "lib/python3.9/site-packages/pkg_resources/_vendor/packaging/__pycache__/requirements.cpython-39.pyc",
      "path_type": "hardlink",
      "sha256": "df0dea871bfe6dc9aae3db4e7098e3ae7becedae2f2910a8da914fc4317ae41e",
      "size_in_bytes": 4050
    },
    {
      "_path": "lib/python3.9/site-packages/pkg_resources/_vendor/packaging/__pycache__/specifiers.cpython-39.pyc",
      "path_type": "hardlink",
      "sha256": "21abf166db903139f7620e00e3ce33d04df5a62cc9ad723661c633dff324c55c",
      "size_in_bytes": 20549
    },
    {
      "_path": "lib/python3.9/site-packages/pkg_resources/_vendor/packaging/__pycache__/tags.cpython-39.pyc",
      "path_type": "hardlink",
      "sha256": "7d5fcd8e73eba1704f21b49c76201938f63d79a44f825a3f54ce0fe91a9b669e",
      "size_in_bytes": 17228
    },
    {
      "_path": "lib/python3.9/site-packages/pkg_resources/_vendor/packaging/__pycache__/utils.cpython-39.pyc",
      "path_type": "hardlink",
      "sha256": "e10ffd449818c120a906a178249834a168028e502b6a7563630cc4c685bdb36b",
      "size_in_bytes": 1619
    },
    {
      "_path": "lib/python3.9/site-packages/pkg_resources/_vendor/packaging/__pycache__/version.cpython-39.pyc",
      "path_type": "hardlink",
      "sha256": "f427d744d38d243f15d0208b6e5258fbb923a134a97e5d354f76a53bc5c807f0",
      "size_in_bytes": 13286
    },
    {
      "_path": "lib/python3.9/site-packages/pkg_resources/_vendor/packaging/_compat.py",
      "path_type": "hardlink",
      "sha256": "31776c1a9484fd6f99ac7a02f3b6a7748e0b576140c14ec72cbf9e1defc28e15",
      "size_in_bytes": 1128
    },
    {
      "_path": "lib/python3.9/site-packages/pkg_resources/_vendor/packaging/_structures.py",
      "path_type": "hardlink",
      "sha256": "a339025fc43c7f6a84d4489cdd8890e1bb8355f833da261ebd8f5eed1db2de26",
      "size_in_bytes": 2022
    },
    {
      "_path": "lib/python3.9/site-packages/pkg_resources/_vendor/packaging/_typing.py",
      "path_type": "hardlink",
      "sha256": "c79f44850e7b4cc4fe9134722d9576e4766f6061b06ee713a3a88a87f3b4b4cc",
      "size_in_bytes": 1812
    },
    {
      "_path": "lib/python3.9/site-packages/pkg_resources/_vendor/packaging/markers.py",
      "path_type": "hardlink",
      "sha256": "6129ed4243272b2c35fc51baa1134d9c6c4b2fa6c0c5c1973adb8513e6134b79",
      "size_in_bytes": 9518
    },
    {
      "_path": "lib/python3.9/site-packages/pkg_resources/_vendor/packaging/requirements.py",
      "path_type": "hardlink",
      "sha256": "47c2b81f8c57fe20f82efa46c35537a2eb8f6c637ec33b05803edbae100cef56",
      "size_in_bytes": 4929
    },
    {
      "_path": "lib/python3.9/site-packages/pkg_resources/_vendor/packaging/specifiers.py",
      "path_type": "hardlink",
      "sha256": "b98a7d975dc5d0b7249d2e9de0deb4cad88180598884a89d78eabd027b314dca",
      "size_in_bytes": 31944
    },
    {
      "_path": "lib/python3.9/site-packages/pkg_resources/_vendor/packaging/tags.py",
      "path_type": "hardlink",
      "sha256": "34a312dfb668fe75ab67182c0facdb5ec5e073d79d9fd9b5eb470188b98725d1",
      "size_in_bytes": 24067
    },
    {
      "_path": "lib/python3.9/site-packages/pkg_resources/_vendor/packaging/utils.py",
      "path_type": "hardlink",
      "sha256": "452865be78ced82b58483f2eae2df67eb30c14c4e607ede286cab5fa08732c4c",
      "size_in_bytes": 1811
    },
    {
      "_path": "lib/python3.9/site-packages/pkg_resources/_vendor/packaging/version.py",
      "path_type": "hardlink",
      "sha256": "0a76e6f8e3bd0ffa9df194c5c7315c8d26af7b14981599b279aa0fbccb2380f7",
      "size_in_bytes": 15470
    },
    {
      "_path": "lib/python3.9/site-packages/pkg_resources/_vendor/pyparsing.py",
      "path_type": "hardlink",
      "sha256": "99a86d920729de0acd003d2b7bff51d032ef067be3ce978bc2026a4fedc7d421",
      "size_in_bytes": 232056
    },
    {
      "_path": "lib/python3.9/site-packages/pkg_resources/extern/__init__.py",
      "path_type": "hardlink",
      "sha256": "dcf8b1693f53cf3778368c95e8256119ded2ffd67e539caf31601fb592af0ba9",
      "size_in_bytes": 2362
    },
    {
      "_path": "lib/python3.9/site-packages/pkg_resources/extern/__pycache__/__init__.cpython-39.pyc",
      "path_type": "hardlink",
      "sha256": "147ebf5b54206a2429ec5b9ee11ec222979ebbc688c4a039493ba5bf74dcd649",
      "size_in_bytes": 2841
    },
    {
      "_path": "lib/python3.9/site-packages/pkg_resources/tests/data/my-test-package-source/__pycache__/setup.cpython-39.pyc",
      "path_type": "hardlink",
      "sha256": "04ff642e0ce1a39af8ae89d605bedb4eac1c9e3d033c29da4296057ca9fdae76",
      "size_in_bytes": 280
    },
    {
      "_path": "lib/python3.9/site-packages/pkg_resources/tests/data/my-test-package-source/setup.py",
      "path_type": "hardlink",
      "sha256": "32b7b39779eac646248c26292319a3861838011f21822e1065d1189a4f88ed1f",
      "size_in_bytes": 104
    },
    {
      "_path": "lib/python3.9/site-packages/setuptools-58.0.4-py3.9.egg-info/PKG-INFO",
      "path_type": "hardlink",
      "sha256": "7c7bf3ac5122dc0015286a1386e142d9c0479f4835f1bf274f9e2d0f77514a69",
      "size_in_bytes": 3419
    },
    {
      "_path": "lib/python3.9/site-packages/setuptools-58.0.4-py3.9.egg-info/SOURCES.txt",
      "path_type": "hardlink",
      "sha256": "4ff2db7f97964d864ce509ffc6b76d10ef884006cddca1d3a92fcb8f67c350fc",
      "size_in_bytes": 12354
    },
    {
      "_path": "lib/python3.9/site-packages/setuptools-58.0.4-py3.9.egg-info/dependency_links.txt",
      "path_type": "hardlink",
      "sha256": "01ba4719c80b6fe911b091a7c05124b64eeece964e09c058ef8f9805daca546b",
      "size_in_bytes": 1
    },
    {
      "_path": "lib/python3.9/site-packages/setuptools-58.0.4-py3.9.egg-info/entry_points.txt",
      "path_type": "hardlink",
      "sha256": "c299e12eb6edca4e21675a820b0e3c7024b1a103f350b32122e685aac07b1b14",
      "size_in_bytes": 2636
    },
    {
      "_path": "lib/python3.9/site-packages/setuptools-58.0.4-py3.9.egg-info/requires.txt",
      "path_type": "hardlink",
      "sha256": "4dfcbe4d11fb7799ecd623a17dca30d4afb3daf3907580e79b56fcbdf4c262bd",
      "size_in_bytes": 478
    },
    {
      "_path": "lib/python3.9/site-packages/setuptools-58.0.4-py3.9.egg-info/top_level.txt",
      "path_type": "hardlink",
      "sha256": "77dc8bdfdbff5bbaa62830d21fab13e1b1348ff2ecd4cdcfd7ad4e1a076c9b88",
      "size_in_bytes": 41
    },
    {
      "_path": "lib/python3.9/site-packages/setuptools/__init__.py",
      "path_type": "hardlink",
      "sha256": "97b50ba3c8c693ee3ef236da726279f1c6294915f8b304b571c6c968954019d3",
      "size_in_bytes": 7448
    },
    {
      "_path": "lib/python3.9/site-packages/setuptools/__pycache__/__init__.cpython-39.pyc",
      "path_type": "hardlink",
      "sha256": "70732c60b76eedc279a9aa5aafd7ee16d03fe3d03ff43cb2d3f4fac036d068d1",
      "size_in_bytes": 8501
    },
    {
      "_path": "lib/python3.9/site-packages/setuptools/__pycache__/_deprecation_warning.cpython-39.pyc",
      "path_type": "hardlink",
      "sha256": "4b2e378a62347cb7018bb383101a585443e752dc728e4ef137e845a9d01d9482",
      "size_in_bytes": 511
    },
    {
      "_path": "lib/python3.9/site-packages/setuptools/__pycache__/_imp.cpython-39.pyc",
      "path_type": "hardlink",
      "sha256": "67b3a2e5b977451c628f3dcc6cf49834eadd42ece63af0c29be9109c52a853ee",
      "size_in_bytes": 2046
    },
    {
      "_path": "lib/python3.9/site-packages/setuptools/__pycache__/archive_util.cpython-39.pyc",
      "path_type": "hardlink",
      "sha256": "debe59d0ebcca03b98013cceab375b282a659dcca789cbc196bf43d96134f9c0",
      "size_in_bytes": 5775
    },
    {
      "_path": "lib/python3.9/site-packages/setuptools/__pycache__/build_meta.cpython-39.pyc",
      "path_type": "hardlink",
      "sha256": "5aa4171c5755a1e480253e2ba22ab62ec210e7f3630d82ae25fa6b535c1f8409",
      "size_in_bytes": 9034
    },
    {
      "_path": "lib/python3.9/site-packages/setuptools/__pycache__/config.cpython-39.pyc",
      "path_type": "hardlink",
      "sha256": "b85b8703d6df5acf8d57b807e7cc4c32d3b1ce32cc41db5378500ef6d871d9af",
      "size_in_bytes": 20787
    },
    {
      "_path": "lib/python3.9/site-packages/setuptools/__pycache__/dep_util.cpython-39.pyc",
      "path_type": "hardlink",
      "sha256": "ee3e1a84352279240455fbd5cfcf25804065f6e1f10a7101465c9a1a0ef897be",
      "size_in_bytes": 818
    },
    {
      "_path": "lib/python3.9/site-packages/setuptools/__pycache__/depends.cpython-39.pyc",
      "path_type": "hardlink",
      "sha256": "20486c33d0468860e48a3faeb4298c945e71c0efeb91c1489e3de961af89b4a2",
      "size_in_bytes": 5210
    },
    {
      "_path": "lib/python3.9/site-packages/setuptools/__pycache__/dist.cpython-39.pyc",
      "path_type": "hardlink",
      "sha256": "d78aa1da0d19964d62c29d40ba0abae237908e9f9d81e04159a2a719fda7a547",
      "size_in_bytes": 36408
    },
    {
      "_path": "lib/python3.9/site-packages/setuptools/__pycache__/errors.cpython-39.pyc",
      "path_type": "hardlink",
      "sha256": "c3553106968107bdd36a0147674ec6db20f968c9b63167db2e1fba9672a2b1a6",
      "size_in_bytes": 811
    },
    {
      "_path": "lib/python3.9/site-packages/setuptools/__pycache__/extension.cpython-39.pyc",
      "path_type": "hardlink",
      "sha256": "3dace223b5a84c65df46766eebc4f1ba93345c400da75fc54d257bbaafda52e8",
      "size_in_bytes": 1905
    },
    {
      "_path": "lib/python3.9/site-packages/setuptools/__pycache__/glob.cpython-39.pyc",
      "path_type": "hardlink",
      "sha256": "32562891606868c582cf9e156f4df293fc038c5509a25a90aa5b46f9ca84f70b",
      "size_in_bytes": 3655
    },
    {
      "_path": "lib/python3.9/site-packages/setuptools/__pycache__/installer.cpython-39.pyc",
      "path_type": "hardlink",
      "sha256": "34cfc32ed0378fb8b9f9a8b9126630e9f847cb666ca497790a615c7d0ef5d4cd",
      "size_in_bytes": 2732
    },
    {
      "_path": "lib/python3.9/site-packages/setuptools/__pycache__/launch.cpython-39.pyc",
      "path_type": "hardlink",
      "sha256": "c8b2fe332feb195a13b55c7b9a4075ecd6028a322cf5f430a285b5460a9fbea8",
      "size_in_bytes": 862
    },
    {
      "_path": "lib/python3.9/site-packages/setuptools/__pycache__/monkey.cpython-39.pyc",
      "path_type": "hardlink",
      "sha256": "04df6ccd30a9560e88bb1ebf151a5858a88e0acb1ac93cca8373f12d47bb01d2",
      "size_in_bytes": 4574
    },
    {
      "_path": "lib/python3.9/site-packages/setuptools/__pycache__/msvc.cpython-39.pyc",
      "path_type": "hardlink",
      "sha256": "48954c30f14fb94e1d8ab05a851c4ac5744d593f14f76f3f717d363ed92c5e5f",
      "size_in_bytes": 42800
    },
    {
      "_path": "lib/python3.9/site-packages/setuptools/__pycache__/namespaces.cpython-39.pyc",
      "path_type": "hardlink",
      "sha256": "e582b7d685f041d940493590170523fc1a04727e2d58085132ed423a2d06fb73",
      "size_in_bytes": 3561
    },
    {
      "_path": "lib/python3.9/site-packages/setuptools/__pycache__/package_index.cpython-39.pyc",
      "path_type": "hardlink",
      "sha256": "fdb80acbb0a6a8ebbc264e296a606c305d8993f6c2f0b9764aa4dacf3f4453dd",
      "size_in_bytes": 32780
    },
    {
      "_path": "lib/python3.9/site-packages/setuptools/__pycache__/py34compat.cpython-39.pyc",
      "path_type": "hardlink",
      "sha256": "253bc2d12dc97e2874c50f281a000e80cf94f6848621af9157518551f5c49d17",
      "size_in_bytes": 441
    },
    {
      "_path": "lib/python3.9/site-packages/setuptools/__pycache__/sandbox.cpython-39.pyc",
      "path_type": "hardlink",
      "sha256": "066a96fe409698deff6805d7db8d109ab138fe71115db77c763feb7e28678b96",
      "size_in_bytes": 15717
    },
    {
      "_path": "lib/python3.9/site-packages/setuptools/__pycache__/unicode_utils.cpython-39.pyc",
      "path_type": "hardlink",
      "sha256": "bf96cee482bc088ec220965aea82171fb05a0dc6885a18b7d2e0c3213ba1f730",
      "size_in_bytes": 1075
    },
    {
      "_path": "lib/python3.9/site-packages/setuptools/__pycache__/version.cpython-39.pyc",
      "path_type": "hardlink",
      "sha256": "abb5ba36d1d4235688e14721c6c0a2b26e9f947c4ac26f75c1355c745057ac4d",
      "size_in_bytes": 285
    },
    {
      "_path": "lib/python3.9/site-packages/setuptools/__pycache__/wheel.cpython-39.pyc",
      "path_type": "hardlink",
      "sha256": "f5a620e3aea4cf3c5820ae78da4b7f76d4f8ebf6319e88c95b104348499875b0",
      "size_in_bytes": 7241
    },
    {
      "_path": "lib/python3.9/site-packages/setuptools/__pycache__/windows_support.cpython-39.pyc",
      "path_type": "hardlink",
      "sha256": "daccd7cfa29d88e9b5fb70ee50b6027b0dbd551ab9e1af0433feb13e70bac692",
      "size_in_bytes": 984
    },
    {
      "_path": "lib/python3.9/site-packages/setuptools/_deprecation_warning.py",
      "path_type": "hardlink",
      "sha256": "8d4f7e76d7efe9c2a6b5024e5cdf273f59a6ee038dc3990a12d88fb5bc276722",
      "size_in_bytes": 218
    },
    {
      "_path": "lib/python3.9/site-packages/setuptools/_distutils/__init__.py",
      "path_type": "hardlink",
      "sha256": "969400a6147feee8560b67db484a6ce096bd5b86307b337f217fcb244b779215",
      "size_in_bytes": 250
    },
    {
      "_path": "lib/python3.9/site-packages/setuptools/_distutils/__pycache__/__init__.cpython-39.pyc",
      "path_type": "hardlink",
      "sha256": "5aec0081db1203842a959da999f409666f9692397757766b234883ecc49d132e",
      "size_in_bytes": 419
    },
    {
      "_path": "lib/python3.9/site-packages/setuptools/_distutils/__pycache__/_msvccompiler.cpython-39.pyc",
      "path_type": "hardlink",
      "sha256": "31434a22b66eae5cae1a17e70a59034ef381bdc59915a2acc6540c2a9c28e5e6",
      "size_in_bytes": 13863
    },
    {
      "_path": "lib/python3.9/site-packages/setuptools/_distutils/__pycache__/archive_util.cpython-39.pyc",
      "path_type": "hardlink",
      "sha256": "382fa50753016482fe237ea8a3b6f686194b378a5b85f938a509dd1de4215dcf",
      "size_in_bytes": 6606
    },
    {
      "_path": "lib/python3.9/site-packages/setuptools/_distutils/__pycache__/bcppcompiler.cpython-39.pyc",
      "path_type": "hardlink",
      "sha256": "11f6022260df7cdf1b40c43bd5415a687d25b6c2fa5d34cd550504fc76a17f48",
      "size_in_bytes": 6517
    },
    {
      "_path": "lib/python3.9/site-packages/setuptools/_distutils/__pycache__/ccompiler.cpython-39.pyc",
      "path_type": "hardlink",
      "sha256": "c3f81a651c6f6a4067dde96ac3c87f43e4c39b6bb9f018c853323a994082f373",
      "size_in_bytes": 33385
    },
    {
      "_path": "lib/python3.9/site-packages/setuptools/_distutils/__pycache__/cmd.cpython-39.pyc",
      "path_type": "hardlink",
      "sha256": "3e839ec6db563f5ca1653e87ba260ec93eee4dd9911cf044187fad1265aecfbf",
      "size_in_bytes": 13945
    },
    {
      "_path": "lib/python3.9/site-packages/setuptools/_distutils/__pycache__/config.cpython-39.pyc",
      "path_type": "hardlink",
      "sha256": "237bf2426402922f5bb96647feaff435e99ed44715476b7cd9b75a15ef295f59",
      "size_in_bytes": 3548
    },
    {
      "_path": "lib/python3.9/site-packages/setuptools/_distutils/__pycache__/core.cpython-39.pyc",
      "path_type": "hardlink",
      "sha256": "a7d4e89c253f74ee0ac817312535d8dcd135972bb722f0fbae70cb43a8e59848",
      "size_in_bytes": 6673
    },
    {
      "_path": "lib/python3.9/site-packages/setuptools/_distutils/__pycache__/cygwinccompiler.cpython-39.pyc",
      "path_type": "hardlink",
      "sha256": "a3f733af7787bf338126c52b0a513fe7336e2f64e932b124cb531fb956eaa9b8",
      "size_in_bytes": 8892
    },
    {
      "_path": "lib/python3.9/site-packages/setuptools/_distutils/__pycache__/debug.cpython-39.pyc",
      "path_type": "hardlink",
      "sha256": "e0c3ef1aa4b8134d99b2676e4de3ae05fc4608888ef6c3bcbd408419fbc40aca",
      "size_in_bytes": 215
    },
    {
      "_path": "lib/python3.9/site-packages/setuptools/_distutils/__pycache__/dep_util.cpython-39.pyc",
      "path_type": "hardlink",
      "sha256": "64cb658d2e8f3ae006b894d809f463dc01271cd7e71f328db9c23a8bd5dd1b10",
      "size_in_bytes": 2735
    },
    {
      "_path": "lib/python3.9/site-packages/setuptools/_distutils/__pycache__/dir_util.cpython-39.pyc",
      "path_type": "hardlink",
      "sha256": "b2ba6103de954f380276a23954e45657761b47a9b36c36f9fbd949ab8251a459",
      "size_in_bytes": 5836
    },
    {
      "_path": "lib/python3.9/site-packages/setuptools/_distutils/__pycache__/dist.cpython-39.pyc",
      "path_type": "hardlink",
      "sha256": "e9ca6690e82ae87047d58d8abec900163dbc41dd142f35e29cebe6da0620fabd",
      "size_in_bytes": 34406
    },
    {
      "_path": "lib/python3.9/site-packages/setuptools/_distutils/__pycache__/errors.cpython-39.pyc",
      "path_type": "hardlink",
      "sha256": "8f0be14ba1881ff6b7acf518ed04613b48574b31431970c79846c23bb3ba2e26",
      "size_in_bytes": 5271
    },
    {
      "_path": "lib/python3.9/site-packages/setuptools/_distutils/__pycache__/extension.cpython-39.pyc",
      "path_type": "hardlink",
      "sha256": "1e6b3d709cc79cb095baf47ed29fd131843dd1680c24e4095ea62569c41e036d",
      "size_in_bytes": 6936
    },
    {
      "_path": "lib/python3.9/site-packages/setuptools/_distutils/__pycache__/fancy_getopt.cpython-39.pyc",
      "path_type": "hardlink",
      "sha256": "b026bc3b687804f79e26318d13763537e20f6a3bd4c51da08e600e115de05f9c",
      "size_in_bytes": 10644
    },
    {
      "_path": "lib/python3.9/site-packages/setuptools/_distutils/__pycache__/file_util.cpython-39.pyc",
      "path_type": "hardlink",
      "sha256": "15977a464cd81977311815a4991978b952c39a36916a35fabfbc6ce2c0784785",
      "size_in_bytes": 6002
    },
    {
      "_path": "lib/python3.9/site-packages/setuptools/_distutils/__pycache__/filelist.cpython-39.pyc",
      "path_type": "hardlink",
      "sha256": "7815048c42ae01ce6a1a9d4a197ba83ffb6b0fa3a6ced382a5109eb84a60c66e",
      "size_in_bytes": 10794
    },
    {
      "_path": "lib/python3.9/site-packages/setuptools/_distutils/__pycache__/log.cpython-39.pyc",
      "path_type": "hardlink",
      "sha256": "f0ea7ddff41bf292dd1104620f74ddf369cd1a131164a33d37cdb6988229e882",
      "size_in_bytes": 2334
    },
    {
      "_path": "lib/python3.9/site-packages/setuptools/_distutils/__pycache__/msvc9compiler.cpython-39.pyc",
      "path_type": "hardlink",
      "sha256": "c4fd042fff7d4fbfecf155d38d76059be49fc0cc072bf4883120b657541967bb",
      "size_in_bytes": 17531
    },
    {
      "_path": "lib/python3.9/site-packages/setuptools/_distutils/__pycache__/msvccompiler.cpython-39.pyc",
      "path_type": "hardlink",
      "sha256": "780d2115af78ca96efe7c2dd2fc59078130046c6af705e1481cac329a6d024fe",
      "size_in_bytes": 14726
    },
    {
      "_path": "lib/python3.9/site-packages/setuptools/_distutils/__pycache__/py35compat.cpython-39.pyc",
      "path_type": "hardlink",
      "sha256": "6a2b0407a11d0629a0697ce0a29f67438661f6146cb22ab3f82a316379acc21c",
      "size_in_bytes": 591
    },
    {
      "_path": "lib/python3.9/site-packages/setuptools/_distutils/__pycache__/py38compat.cpython-39.pyc",
      "path_type": "hardlink",
      "sha256": "8b5e82831165d1d379a055e4c89c8dfe0b40d383e3731b6ff9a1a28bf6f96704",
      "size_in_bytes": 386
    },
    {
      "_path": "lib/python3.9/site-packages/setuptools/_distutils/__pycache__/spawn.cpython-39.pyc",
      "path_type": "hardlink",
      "sha256": "5d21e831377331b1f6b38738cf80d5f271100e4d24a57bb2048dbedc7f0e8ddc",
      "size_in_bytes": 2862
    },
    {
      "_path": "lib/python3.9/site-packages/setuptools/_distutils/__pycache__/sysconfig.cpython-39.pyc",
      "path_type": "hardlink",
      "sha256": "0d1dfc5a3fa73d856b84ea2b5537699c05698bdc0b1eced55508eec2e2928e0e",
      "size_in_bytes": 12452
    },
    {
      "_path": "lib/python3.9/site-packages/setuptools/_distutils/__pycache__/text_file.cpython-39.pyc",
      "path_type": "hardlink",
      "sha256": "28e52bea2ec473746d793e81e5987a90ef96c4fb6e849444e921df9ec7f57666",
      "size_in_bytes": 8460
    },
    {
      "_path": "lib/python3.9/site-packages/setuptools/_distutils/__pycache__/unixccompiler.cpython-39.pyc",
      "path_type": "hardlink",
      "sha256": "f276285d99c3b9d1b794a190ffa3ad6e370daf9d75dd37765715124d81f4b6cb",
      "size_in_bytes": 6832
    },
    {
      "_path": "lib/python3.9/site-packages/setuptools/_distutils/__pycache__/util.cpython-39.pyc",
      "path_type": "hardlink",
      "sha256": "573d97ccad3d256e07607d88a3d86c168e416cdcee945b5f2a35c5be61468d03",
      "size_in_bytes": 14199
    },
    {
      "_path": "lib/python3.9/site-packages/setuptools/_distutils/__pycache__/version.cpython-39.pyc",
      "path_type": "hardlink",
      "sha256": "5b76277fc8aabe355294e4be21e767111163e199002db650da03eed2d43f3074",
      "size_in_bytes": 7360
    },
    {
      "_path": "lib/python3.9/site-packages/setuptools/_distutils/__pycache__/versionpredicate.cpython-39.pyc",
      "path_type": "hardlink",
      "sha256": "3c70de31773577ecb3a3954a6510d5c9b9466b1d26575bd592d1953146983fd0",
      "size_in_bytes": 5144
    },
    {
      "_path": "lib/python3.9/site-packages/setuptools/_distutils/_msvccompiler.py",
      "path_type": "hardlink",
      "sha256": "ba37aa89812c5a30b1a8e6c1f798ca532821e65de48e151ed571c569c9c90877",
      "size_in_bytes": 21168
    },
    {
      "_path": "lib/python3.9/site-packages/setuptools/_distutils/archive_util.py",
      "path_type": "hardlink",
      "sha256": "a96fae886c187b14ef2b97be8927a5ff7d43b21c7e0aa4da9cd3caeac9f07fdf",
      "size_in_bytes": 8572
    },
    {
      "_path": "lib/python3.9/site-packages/setuptools/_distutils/bcppcompiler.py",
      "path_type": "hardlink",
      "sha256": "3890d5a425265fa1fcbffee5575ce27d5d5f731f760abd9d862521ebdf3d5092",
      "size_in_bytes": 14894
    },
    {
      "_path": "lib/python3.9/site-packages/setuptools/_distutils/ccompiler.py",
      "path_type": "hardlink",
      "sha256": "1b6b67f50df343455435f5b52ccfa7ae72edffa3a1b6252e9ee802bfce43d4f4",
      "size_in_bytes": 47607
    },
    {
      "_path": "lib/python3.9/site-packages/setuptools/_distutils/cmd.py",
      "path_type": "hardlink",
      "sha256": "79ca3a2c0194b686cbb8f69fba19a02a09304512ff598f0a27861e0c21e9725b",
      "size_in_bytes": 18079
    },
    {
      "_path": "lib/python3.9/site-packages/setuptools/_distutils/command/__init__.py",
      "path_type": "hardlink",
      "sha256": "d9303eae5343973788f9cb1b5875c58c60fcb8e62a00b31fc963a14f8f670ba8",
      "size_in_bytes": 799
    },
    {
      "_path": "lib/python3.9/site-packages/setuptools/_distutils/command/__pycache__/__init__.cpython-39.pyc",
      "path_type": "hardlink",
      "sha256": "2eb0dc91b341699f8cc884b49b17287bad03356663f9d18577315f999f9ee366",
      "size_in_bytes": 494
    },
    {
      "_path": "lib/python3.9/site-packages/setuptools/_distutils/command/__pycache__/bdist.cpython-39.pyc",
      "path_type": "hardlink",
      "sha256": "9f2657a96ff871a4e0f3ea4ea214a214c13744de9f84e6a09d714302f435f3d4",
      "size_in_bytes": 3624
    },
    {
      "_path": "lib/python3.9/site-packages/setuptools/_distutils/command/__pycache__/bdist_dumb.cpython-39.pyc",
      "path_type": "hardlink",
      "sha256": "26b248ad49fffa0ff0d93ecbe9d91bfdf5952c44089a42c11524c9d0c81c0ed6",
      "size_in_bytes": 3607
    },
    {
      "_path": "lib/python3.9/site-packages/setuptools/_distutils/command/__pycache__/bdist_msi.cpython-39.pyc",
      "path_type": "hardlink",
      "sha256": "410603b8f357e967973f950b87bf327ada829ca2ed7750083871384097e6a8dc",
      "size_in_bytes": 19789
    },
    {
      "_path": "lib/python3.9/site-packages/setuptools/_distutils/command/__pycache__/bdist_rpm.cpython-39.pyc",
      "path_type": "hardlink",
      "sha256": "75701e2e8a1db760d1c18b4a463dee036dcf908c4a68b3a837b57462f31f2e2b",
      "size_in_bytes": 12244
    },
    {
      "_path": "lib/python3.9/site-packages/setuptools/_distutils/command/__pycache__/bdist_wininst.cpython-39.pyc",
      "path_type": "hardlink",
      "sha256": "f6c49dd7862ef941b26744aee71158892216ca8a9edcd85dd53cce7c83f65aee",
      "size_in_bytes": 8564
    },
    {
      "_path": "lib/python3.9/site-packages/setuptools/_distutils/command/__pycache__/build.cpython-39.pyc",
      "path_type": "hardlink",
      "sha256": "b9e26626327b9146b1683ad33c58132163dd651c78267c5fda6d3e2a9b7b00be",
      "size_in_bytes": 3896
    },
    {
      "_path": "lib/python3.9/site-packages/setuptools/_distutils/command/__pycache__/build_clib.cpython-39.pyc",
      "path_type": "hardlink",
      "sha256": "f98365c669e36a7cf0f227d1000892a103cd9817f373e4590e847a892a039762",
      "size_in_bytes": 4819
    },
    {
      "_path": "lib/python3.9/site-packages/setuptools/_distutils/command/__pycache__/build_ext.cpython-39.pyc",
      "path_type": "hardlink",
      "sha256": "5294717a280ce769bc601bd0a6acd5394a7a9558a5d5c3a2b08c50e4311080ad",
      "size_in_bytes": 16278
    },
    {
      "_path": "lib/python3.9/site-packages/setuptools/_distutils/command/__pycache__/build_py.cpython-39.pyc",
      "path_type": "hardlink",
      "sha256": "0ef327a3ea46673c93e47743db87cd2f1412dde45536227e838b9ee28e086a95",
      "size_in_bytes": 9814
    },
    {
      "_path": "lib/python3.9/site-packages/setuptools/_distutils/command/__pycache__/build_scripts.cpython-39.pyc",
      "path_type": "hardlink",
      "sha256": "d721b4d9be69afb898efa2764c0f3dd5cc82fb8de0e25bc48c00d1494e541a8b",
      "size_in_bytes": 3979
    },
    {
      "_path": "lib/python3.9/site-packages/setuptools/_distutils/command/__pycache__/check.cpython-39.pyc",
      "path_type": "hardlink",
      "sha256": "5ebdc45a9bd262aaa04999901d19bf4f13f36f4a0b37cf431a1b0bad081fa96f",
      "size_in_bytes": 4928
    },
    {
      "_path": "lib/python3.9/site-packages/setuptools/_distutils/command/__pycache__/clean.cpython-39.pyc",
      "path_type": "hardlink",
      "sha256": "a316c6fd528ebc096a2870ba949852169a90b22e31a52c83e115eeffaa99043e",
      "size_in_bytes": 2101
    },
    {
      "_path": "lib/python3.9/site-packages/setuptools/_distutils/command/__pycache__/config.cpython-39.pyc",
      "path_type": "hardlink",
      "sha256": "b92485f5fd2b6616c1e4f1d3169d2603ca25414863c20d59b1e7dc66785dce22",
      "size_in_bytes": 10231
    },
    {
      "_path": "lib/python3.9/site-packages/setuptools/_distutils/command/__pycache__/install.cpython-39.pyc",
      "path_type": "hardlink",
      "sha256": "88355681c60d16780682443c59322923338ab579cbca47380bb7a05689c139a3",
      "size_in_bytes": 13796
    },
    {
      "_path": "lib/python3.9/site-packages/setuptools/_distutils/command/__pycache__/install_data.cpython-39.pyc",
      "path_type": "hardlink",
      "sha256": "24378827c44c59f2fa84bf352e1405b62272441fd3254390f54f6ca608e18aff",
      "size_in_bytes": 2304
    },
    {
      "_path": "lib/python3.9/site-packages/setuptools/_distutils/command/__pycache__/install_egg_info.cpython-39.pyc",
      "path_type": "hardlink",
      "sha256": "8ec2c8f3b5235aaffcb7c3ab0cb27dc33010ea396eabb6c1d7a5037f297a481f",
      "size_in_bytes": 3039
    },
    {
      "_path": "lib/python3.9/site-packages/setuptools/_distutils/command/__pycache__/install_headers.cpython-39.pyc",
      "path_type": "hardlink",
      "sha256": "01535d7363c6314a90467ae32b5a8fed26e752ef3cfb5f3d646ad139633a01fc",
      "size_in_bytes": 1729
    },
    {
      "_path": "lib/python3.9/site-packages/setuptools/_distutils/command/__pycache__/install_lib.cpython-39.pyc",
      "path_type": "hardlink",
      "sha256": "80367ed3f9034b9f76682242bf158dad6d4247345b4e454fea0d776a3781a383",
      "size_in_bytes": 5101
    },
    {
      "_path": "lib/python3.9/site-packages/setuptools/_distutils/command/__pycache__/install_scripts.cpython-39.pyc",
      "path_type": "hardlink",
      "sha256": "e021f499d452cae3b1ab0585825c8b050cf3591c54f9432455957b76333cc709",
      "size_in_bytes": 2152
    },
    {
      "_path": "lib/python3.9/site-packages/setuptools/_distutils/command/__pycache__/py37compat.cpython-39.pyc",
      "path_type": "hardlink",
      "sha256": "a17218232bd53bb8b8704fa28d9370f98d53ad3bd3516fcb9f06417f70f03a35",
      "size_in_bytes": 995
    },
    {
      "_path": "lib/python3.9/site-packages/setuptools/_distutils/command/__pycache__/register.cpython-39.pyc",
      "path_type": "hardlink",
      "sha256": "c77d51975423191d03986dbe549491ce6a29709ee71d42b441fc95fbffa56837",
      "size_in_bytes": 8472
    },
    {
      "_path": "lib/python3.9/site-packages/setuptools/_distutils/command/__pycache__/sdist.cpython-39.pyc",
      "path_type": "hardlink",
      "sha256": "280e35ad271bbb13fc2f8486c5ef95d3d44599163430a52493fbe791bcfc98ea",
      "size_in_bytes": 14499
    },
    {
      "_path": "lib/python3.9/site-packages/setuptools/_distutils/command/__pycache__/upload.cpython-39.pyc",
      "path_type": "hardlink",
      "sha256": "e4c02e4720583a98b12547ce3037edfe590176feb4257f24a8a643ae9cda3218",
      "size_in_bytes": 5222
    },
    {
      "_path": "lib/python3.9/site-packages/setuptools/_distutils/command/bdist.py",
      "path_type": "hardlink",
      "sha256": "db3e1eb9d465fe7ee6de51bd95e2f4218a9eb386ec9bc7347f17d9ba269f8cc8",
      "size_in_bytes": 5562
    },
    {
      "_path": "lib/python3.9/site-packages/setuptools/_distutils/command/bdist_dumb.py",
      "path_type": "hardlink",
      "sha256": "053babf63708a69c8fecf89abe37ec93b623125aafc5e60eda7a54c8f3ce7a47",
      "size_in_bytes": 4913
    },
    {
      "_path": "lib/python3.9/site-packages/setuptools/_distutils/command/bdist_msi.py",
      "path_type": "hardlink",
      "sha256": "11515060dfd7f84c5e78ff2099d57d25c20db2e506b0b254cfd69f314d11b7c7",
      "size_in_bytes": 35579
    },
    {
      "_path": "lib/python3.9/site-packages/setuptools/_distutils/command/bdist_rpm.py",
      "path_type": "hardlink",
      "sha256": "8233b0db61a10d26dcab46ddab6e5c4dbfa7e875969b46d284b41a77f9a42789",
      "size_in_bytes": 21537
    },
    {
      "_path": "lib/python3.9/site-packages/setuptools/_distutils/command/bdist_wininst.py",
      "path_type": "hardlink",
      "sha256": "88695a23e55f1251ce9de79ccca1d69d23796b5d3eec831c25a5ee47599d4b77",
      "size_in_bytes": 16030
    },
    {
      "_path": "lib/python3.9/site-packages/setuptools/_distutils/command/build.py",
      "path_type": "hardlink",
      "sha256": "d4017e77137f365384ca8c9d073d7d030a5e5983d260266f38b25237f3dd6ad6",
      "size_in_bytes": 5773
    },
    {
      "_path": "lib/python3.9/site-packages/setuptools/_distutils/command/build_clib.py",
      "path_type": "hardlink",
      "sha256": "6e05531e1dbc78b400d86930ebc6a602977f8fba90057e0c4c8fb34ef00afc9e",
      "size_in_bytes": 8022
    },
    {
      "_path": "lib/python3.9/site-packages/setuptools/_distutils/command/build_ext.py",
      "path_type": "hardlink",
      "sha256": "f1148130b63cf2def0970ab075549c26fece40cc5e43dabe9a6c153e2a5203e5",
      "size_in_bytes": 31720
    },
    {
      "_path": "lib/python3.9/site-packages/setuptools/_distutils/command/build_py.py",
      "path_type": "hardlink",
      "sha256": "8577ac32b1ff7a9363e8af1252d25d8a98048acdc474808a799f1559efe775c9",
      "size_in_bytes": 16495
    },
    {
      "_path": "lib/python3.9/site-packages/setuptools/_distutils/command/build_scripts.py",
      "path_type": "hardlink",
      "sha256": "bab767eb03f13cc5b974baa9a85919f1da9a146d6d7fd4e201aa3a53d2c2a042",
      "size_in_bytes": 5963
    },
    {
      "_path": "lib/python3.9/site-packages/setuptools/_distutils/command/check.py",
      "path_type": "hardlink",
      "sha256": "e6a0ed23be5c719837b0022d41679a22ef32dc5477d783b8aebf529b3e07b04a",
      "size_in_bytes": 5637
    },
    {
      "_path": "lib/python3.9/site-packages/setuptools/_distutils/command/clean.py",
      "path_type": "hardlink",
      "sha256": "d930ade3baeee2165933445f55f5188f96dba6272918b3f8421c398c1b6fa7d9",
      "size_in_bytes": 2776
    },
    {
      "_path": "lib/python3.9/site-packages/setuptools/_distutils/command/config.py",
      "path_type": "hardlink",
      "sha256": "d9a4e3c30dcfc23301f3e6626c27b83fb07ea86d61335827feb257632c51cfa7",
      "size_in_bytes": 13117
    },
    {
      "_path": "lib/python3.9/site-packages/setuptools/_distutils/command/install.py",
      "path_type": "hardlink",
      "sha256": "bcd657f2c3de4effaa2788c9ce52a7b308c371b0a1adf54ec7a09302add2c673",
      "size_in_bytes": 27389
    },
    {
      "_path": "lib/python3.9/site-packages/setuptools/_distutils/command/install_data.py",
      "path_type": "hardlink",
      "sha256": "62118e0308778093ea17b7a6e57034ae6a51e36cf56cb87cd28a049730f252f9",
      "size_in_bytes": 2822
    },
    {
      "_path": "lib/python3.9/site-packages/setuptools/_distutils/command/install_egg_info.py",
      "path_type": "hardlink",
      "sha256": "d245b496254c79a7648d7d197117cca6d2857a7d3b1b0ea0cb0d551d3e4a2307",
      "size_in_bytes": 2603
    },
    {
      "_path": "lib/python3.9/site-packages/setuptools/_distutils/command/install_headers.py",
      "path_type": "hardlink",
      "sha256": "5d0ea27646c80dfaf59635c23b39ee55432f385a47067e9c2b45b3f6020cd9be",
      "size_in_bytes": 1298
    },
    {
      "_path": "lib/python3.9/site-packages/setuptools/_distutils/command/install_lib.py",
      "path_type": "hardlink",
      "sha256": "f40a1f47e30ef6502d8f0c2eba40a9b5ea4e68910a3195b65478b2479854ec70",
      "size_in_bytes": 8397
    },
    {
      "_path": "lib/python3.9/site-packages/setuptools/_distutils/command/install_scripts.py",
      "path_type": "hardlink",
      "sha256": "fc22d4790c06251718da48a4edaccf327e4876d0c2ae359d52f675921946e9c9",
      "size_in_bytes": 2017
    },
    {
      "_path": "lib/python3.9/site-packages/setuptools/_distutils/command/py37compat.py",
      "path_type": "hardlink",
      "sha256": "ab346186f4e286ac7f3d966dd996040b18755f73a3db9e55a9ab737a560500ac",
      "size_in_bytes": 671
    },
    {
      "_path": "lib/python3.9/site-packages/setuptools/_distutils/command/register.py",
      "path_type": "hardlink",
      "sha256": "da36aaf7debcaedda9b91543071d476cd897bf6eee3a4f22744ff894f7ffdd53",
      "size_in_bytes": 11712
    },
    {
      "_path": "lib/python3.9/site-packages/setuptools/_distutils/command/sdist.py",
      "path_type": "hardlink",
      "sha256": "aa8b498c03b3ca1263ab6fa80c89a3345aceb5a4a778414325307eb04935c275",
      "size_in_bytes": 19005
    },
    {
      "_path": "lib/python3.9/site-packages/setuptools/_distutils/command/upload.py",
      "path_type": "hardlink",
      "sha256": "04b3b5c3b79202ab028c22d7b5ffc24554a3c05d569b2381c8654635d710f286",
      "size_in_bytes": 7597
    },
    {
      "_path": "lib/python3.9/site-packages/setuptools/_distutils/config.py",
      "path_type": "hardlink",
      "sha256": "76d1e06e5c7d2617f2acac75f89ec9971c3f7fbb3c65b3c54228b65163136696",
      "size_in_bytes": 4827
    },
    {
      "_path": "lib/python3.9/site-packages/setuptools/_distutils/core.py",
      "path_type": "hardlink",
      "sha256": "8db74e92938ad3dc62fb9eaf861c2f9f77d87612dbe4324ef2adcad5f9d0cf44",
      "size_in_bytes": 8876
    },
    {
      "_path": "lib/python3.9/site-packages/setuptools/_distutils/cygwinccompiler.py",
      "path_type": "hardlink",
      "sha256": "256a65120c14bcb088833c335b8043196eb9372e3fabe1fad5465c87825d42ff",
      "size_in_bytes": 17194
    },
    {
      "_path": "lib/python3.9/site-packages/setuptools/_distutils/debug.py",
      "path_type": "hardlink",
      "sha256": "37a32b4c0a8aea5f52564ead5b0791d74f0f33c3a5eea3657f257e9c770b86c6",
      "size_in_bytes": 139
    },
    {
      "_path": "lib/python3.9/site-packages/setuptools/_distutils/dep_util.py",
      "path_type": "hardlink",
      "sha256": "1ae47d230fe3cd9464c9e989e475fcac1ff0446c642017019b5aa1e78afbce19",
      "size_in_bytes": 3491
    },
    {
      "_path": "lib/python3.9/site-packages/setuptools/_distutils/dir_util.py",
      "path_type": "hardlink",
      "sha256": "5308413944dc57ae464f071ee123ee4d747c67cab72d811c9adb6a7066f46d8a",
      "size_in_bytes": 7778
    },
    {
      "_path": "lib/python3.9/site-packages/setuptools/_distutils/dist.py",
      "path_type": "hardlink",
      "sha256": "062b9fe9c6bcba215f31271116c6142ad6f99de30fb712b146d5e7e74ff57f75",
      "size_in_bytes": 50421
    },
    {
      "_path": "lib/python3.9/site-packages/setuptools/_distutils/errors.py",
      "path_type": "hardlink",
      "sha256": "62bead29919dcc1a0d8b9def06d8aad1427ffd7d390a6c5275026a3966b0e926",
      "size_in_bytes": 3577
    },
    {
      "_path": "lib/python3.9/site-packages/setuptools/_distutils/extension.py",
      "path_type": "hardlink",
      "sha256": "6d36f74340a87af18a62fe5d5f596cfbe2e7f2d941d3e5043ac8bd070ce567eb",
      "size_in_bytes": 10515
    },
    {
      "_path": "lib/python3.9/site-packages/setuptools/_distutils/fancy_getopt.py",
      "path_type": "hardlink",
      "sha256": "38fc69d82c478b5629fddd43f09c56e147aaf5f0bbd6d7a040569a7e1e7c1865",
      "size_in_bytes": 17784
    },
    {
      "_path": "lib/python3.9/site-packages/setuptools/_distutils/file_util.py",
      "path_type": "hardlink",
      "sha256": "d2152a7c8b4dff1d83562851d0c1dd03828231508e3bc568072685a7f6ba3038",
      "size_in_bytes": 8148
    },
    {
      "_path": "lib/python3.9/site-packages/setuptools/_distutils/filelist.py",
      "path_type": "hardlink",
      "sha256": "67d7f986f7a9667a67899d881660a75888ddbe25a8cecf2c6c04418566a3c283",
      "size_in_bytes": 13407
    },
    {
      "_path": "lib/python3.9/site-packages/setuptools/_distutils/log.py",
      "path_type": "hardlink",
      "sha256": "8560667540b62bddbb41c56fdd110c5b71cc3dc97171c3d09e0c4b4ae517425d",
      "size_in_bytes": 1969
    },
    {
      "_path": "lib/python3.9/site-packages/setuptools/_distutils/msvc9compiler.py",
      "path_type": "hardlink",
      "sha256": "5fadb707dda0d2ff00dc110cf6aa517f7f7a00477f85f8e47c35154cabb485c1",
      "size_in_bytes": 30453
    },
    {
      "_path": "lib/python3.9/site-packages/setuptools/_distutils/msvccompiler.py",
      "path_type": "hardlink",
      "sha256": "aabb802de191abcf828ed8c4dad2d0f16dba42772171879d5b31667bc0316784",
      "size_in_bytes": 23540
    },
    {
      "_path": "lib/python3.9/site-packages/setuptools/_distutils/py35compat.py",
      "path_type": "hardlink",
      "sha256": "fac935bc122c3a01fe0286e32186cafce12374917fe78525fc3d44884f5733f7",
      "size_in_bytes": 455
    },
    {
      "_path": "lib/python3.9/site-packages/setuptools/_distutils/py38compat.py",
      "path_type": "hardlink",
      "sha256": "208edd741c4e8a30bbb8d378cffe3a1d8523c184c960c3622c9a064e8ae6666d",
      "size_in_bytes": 212
    },
    {
      "_path": "lib/python3.9/site-packages/setuptools/_distutils/spawn.py",
      "path_type": "hardlink",
      "sha256": "e2e13d9375595a28f1cbb13f4657268753286a668f27cada8dd3416a02b18e05",
      "size_in_bytes": 3498
    },
    {
      "_path": "lib/python3.9/site-packages/setuptools/_distutils/sysconfig.py",
      "path_type": "hardlink",
      "sha256": "a1148bcb541b7f0d289c013514be2f54053febee525011dd4fee6fb9edc68835",
      "size_in_bytes": 21417
    },
    {
      "_path": "lib/python3.9/site-packages/setuptools/_distutils/text_file.py",
      "path_type": "hardlink",
      "sha256": "3ecb8025e59d289a0b495ffa37a229079fb43daf382b32d4b9c24c1516b3c372",
      "size_in_bytes": 12483
    },
    {
      "_path": "lib/python3.9/site-packages/setuptools/_distutils/unixccompiler.py",
      "path_type": "hardlink",
      "sha256": "b78ec70a37afe865503f0d9119f1723ada8c0d9cf27778d4272e912d980416eb",
      "size_in_bytes": 14996
    },
    {
      "_path": "lib/python3.9/site-packages/setuptools/_distutils/util.py",
      "path_type": "hardlink",
      "sha256": "e94b20c711b7a737e29a4d891dae4b0481c775d9814fe61dc68a1c5cb94bea0e",
      "size_in_bytes": 20373
    },
    {
      "_path": "lib/python3.9/site-packages/setuptools/_distutils/version.py",
      "path_type": "hardlink",
      "sha256": "f0da203fa34f3d0a69dc450c65c4fd73310789af9e86a3e8f2ca68fdeec08145",
      "size_in_bytes": 12514
    },
    {
      "_path": "lib/python3.9/site-packages/setuptools/_distutils/versionpredicate.py",
      "path_type": "hardlink",
      "sha256": "671a4403e4d0bfcf2651673a85eb543b8a92a80dac6bb8a98d9dd010ae5ebc39",
      "size_in_bytes": 5133
    },
    {
      "_path": "lib/python3.9/site-packages/setuptools/_imp.py",
      "path_type": "hardlink",
      "sha256": "1e617dd486e2b517ec0f9cfe838ff099cb87f916a1c8838d6cf82208e160b730",
      "size_in_bytes": 2392
    },
    {
      "_path": "lib/python3.9/site-packages/setuptools/_vendor/__init__.py",
      "path_type": "hardlink",
      "sha256": "e3b0c44298fc1c149afbf4c8996fb92427ae41e4649b934ca495991b7852b855",
      "size_in_bytes": 0
    },
    {
      "_path": "lib/python3.9/site-packages/setuptools/_vendor/__pycache__/__init__.cpython-39.pyc",
      "path_type": "hardlink",
      "sha256": "2d327940e6b642f0f84083c1efe425210af82583b3c21fb35021fae224b64c7e",
      "size_in_bytes": 149
    },
    {
      "_path": "lib/python3.9/site-packages/setuptools/_vendor/__pycache__/ordered_set.cpython-39.pyc",
      "path_type": "hardlink",
      "sha256": "eb5c29a3a9781f3636f43062f7b835c4ecdc8a636f43b340a9b968ec0e8d358a",
      "size_in_bytes": 16343
    },
    {
      "_path": "lib/python3.9/site-packages/setuptools/_vendor/__pycache__/pyparsing.cpython-39.pyc",
      "path_type": "hardlink",
      "sha256": "5952a3715410638f277c0719dc79553cf4a21e9f2c5ef39acd85068610d8fe3c",
      "size_in_bytes": 201303
    },
    {
      "_path": "lib/python3.9/site-packages/setuptools/_vendor/more_itertools/__init__.py",
      "path_type": "hardlink",
      "sha256": "0bbb177df1d35ccdcffa268b3cf7ea7e60e8c4e7e540c24b70cede77da778da9",
      "size_in_bytes": 82
    },
    {
      "_path": "lib/python3.9/site-packages/setuptools/_vendor/more_itertools/__pycache__/__init__.cpython-39.pyc",
      "path_type": "hardlink",
      "sha256": "8d26e93fe32d0317fce0903731cb1e38852e9264750525522a49c3550f27cbdf",
      "size_in_bytes": 230
    },
    {
      "_path": "lib/python3.9/site-packages/setuptools/_vendor/more_itertools/__pycache__/more.cpython-39.pyc",
      "path_type": "hardlink",
      "sha256": "1ad0bc36ee1e7e300957dd78820e25814bc7254425232c27828d95de9e2b4780",
      "size_in_bytes": 109975
    },
    {
      "_path": "lib/python3.9/site-packages/setuptools/_vendor/more_itertools/__pycache__/recipes.cpython-39.pyc",
      "path_type": "hardlink",
      "sha256": "f8a88457bfe949fd349d8e53ebd5e16b23529225557c02c84691f01470695e05",
      "size_in_bytes": 17895
    },
    {
      "_path": "lib/python3.9/site-packages/setuptools/_vendor/more_itertools/more.py",
      "path_type": "hardlink",
      "sha256": "0e565af2fe898a15707d0e731e274e03ec43134a2b710214cb156709a5280ca1",
      "size_in_bytes": 117968
    },
    {
      "_path": "lib/python3.9/site-packages/setuptools/_vendor/more_itertools/recipes.py",
      "path_type": "hardlink",
      "sha256": "524364aec672aa2c202c700d0539af3210af68d4af48d621c8ea73fc9739e436",
      "size_in_bytes": 16256
    },
    {
      "_path": "lib/python3.9/site-packages/setuptools/_vendor/ordered_set.py",
      "path_type": "hardlink",
      "sha256": "75b68272cdbb77237d827316185e6703f06b567e90f8dae329826957dfdf801b",
      "size_in_bytes": 15130
    },
    {
      "_path": "lib/python3.9/site-packages/setuptools/_vendor/packaging/__about__.py",
      "path_type": "hardlink",
      "sha256": "3cd32c6999f851c087cae6e044e1f56e5e8296e76e3e3239905ad2a7f660925a",
      "size_in_bytes": 736
    },
    {
      "_path": "lib/python3.9/site-packages/setuptools/_vendor/packaging/__init__.py",
      "path_type": "hardlink",
      "sha256": "e9e9dba795e045f8c18ec23df9b9f4d078c77f94c7db53c330e2a4256f31c3ec",
      "size_in_bytes": 562
    },
    {
      "_path": "lib/python3.9/site-packages/setuptools/_vendor/packaging/__pycache__/__about__.cpython-39.pyc",
      "path_type": "hardlink",
      "sha256": "654f867e9028ff8ef2ce2f2907ac689c262c9ed4a3a876204d8f37736e83da97",
      "size_in_bytes": 665
    },
    {
      "_path": "lib/python3.9/site-packages/setuptools/_vendor/packaging/__pycache__/__init__.cpython-39.pyc",
      "path_type": "hardlink",
      "sha256": "6d0aa5c8ebc041f93870b4751b848b9ea10c385e89571cfb74f1264d52b5c090",
      "size_in_bytes": 511
    },
    {
      "_path": "lib/python3.9/site-packages/setuptools/_vendor/packaging/__pycache__/_compat.cpython-39.pyc",
      "path_type": "hardlink",
      "sha256": "49253cb9c6f575b2d53e3756436181220c000cfaca057a09e3782af6cd02ea39",
      "size_in_bytes": 1109
    },
    {
      "_path": "lib/python3.9/site-packages/setuptools/_vendor/packaging/__pycache__/_structures.cpython-39.pyc",
      "path_type": "hardlink",
      "sha256": "77848652a8a112ec8f968cc752f4ea11e74abfbba2ad34c0b9a9bfdbea31a11b",
      "size_in_bytes": 2863
    },
    {
      "_path": "lib/python3.9/site-packages/setuptools/_vendor/packaging/__pycache__/_typing.cpython-39.pyc",
      "path_type": "hardlink",
      "sha256": "f7fc87d80b4e3b99067903fd44563299eb0a407472bfba26260b0a4dbbff849c",
      "size_in_bytes": 1454
    },
    {
      "_path": "lib/python3.9/site-packages/setuptools/_vendor/packaging/__pycache__/markers.cpython-39.pyc",
      "path_type": "hardlink",
      "sha256": "7d045483e4e3256104031ddd75422804378fee096ee9a61cf9099648c32e7010",
      "size_in_bytes": 9267
    },
    {
      "_path": "lib/python3.9/site-packages/setuptools/_vendor/packaging/__pycache__/requirements.cpython-39.pyc",
      "path_type": "hardlink",
      "sha256": "8495f2b76fe05c27f6a82e6c5c9319e4561bdfe1d7e9d2cf7bd4265cd3fc6ba9",
      "size_in_bytes": 4044
    },
    {
      "_path": "lib/python3.9/site-packages/setuptools/_vendor/packaging/__pycache__/specifiers.cpython-39.pyc",
      "path_type": "hardlink",
      "sha256": "9c1ce18c7970c4e27323e453c4785fc000da5b8994cbce6c7d0f140a9af423b2",
      "size_in_bytes": 20546
    },
    {
      "_path": "lib/python3.9/site-packages/setuptools/_vendor/packaging/__pycache__/tags.cpython-39.pyc",
      "path_type": "hardlink",
      "sha256": "0175dda39740ab2cb64cd84c7f275345e282787424d1941003946de8021178a4",
      "size_in_bytes": 17225
    },
    {
      "_path": "lib/python3.9/site-packages/setuptools/_vendor/packaging/__pycache__/utils.cpython-39.pyc",
      "path_type": "hardlink",
      "sha256": "84efb6911d0cdb20eaeabd3d9000d5c8dff78fb371698be9fada0ffd12de40c4",
      "size_in_bytes": 1616
    },
    {
      "_path": "lib/python3.9/site-packages/setuptools/_vendor/packaging/__pycache__/version.cpython-39.pyc",
      "path_type": "hardlink",
      "sha256": "408d9a62ef022ed68d36a28241789712123bb63fbc359906173b0e43f9e4a151",
      "size_in_bytes": 13283
    },
    {
      "_path": "lib/python3.9/site-packages/setuptools/_vendor/packaging/_compat.py",
      "path_type": "hardlink",
      "sha256": "31776c1a9484fd6f99ac7a02f3b6a7748e0b576140c14ec72cbf9e1defc28e15",
      "size_in_bytes": 1128
    },
    {
      "_path": "lib/python3.9/site-packages/setuptools/_vendor/packaging/_structures.py",
      "path_type": "hardlink",
      "sha256": "a339025fc43c7f6a84d4489cdd8890e1bb8355f833da261ebd8f5eed1db2de26",
      "size_in_bytes": 2022
    },
    {
      "_path": "lib/python3.9/site-packages/setuptools/_vendor/packaging/_typing.py",
      "path_type": "hardlink",
      "sha256": "c79f44850e7b4cc4fe9134722d9576e4766f6061b06ee713a3a88a87f3b4b4cc",
      "size_in_bytes": 1812
    },
    {
      "_path": "lib/python3.9/site-packages/setuptools/_vendor/packaging/markers.py",
      "path_type": "hardlink",
      "sha256": "0420b165bb7cc60cac1fcbf9a6a6cb91db509d164720690942a94d0467a4e274",
      "size_in_bytes": 9509
    },
    {
      "_path": "lib/python3.9/site-packages/setuptools/_vendor/packaging/requirements.py",
      "path_type": "hardlink",
      "sha256": "547c9d65d93c9b7a85c517a898dc0aafbd5c9a98da9ed115ff13a1904cb220d2",
      "size_in_bytes": 4917
    },
    {
      "_path": "lib/python3.9/site-packages/setuptools/_vendor/packaging/specifiers.py",
      "path_type": "hardlink",
      "sha256": "b98a7d975dc5d0b7249d2e9de0deb4cad88180598884a89d78eabd027b314dca",
      "size_in_bytes": 31944
    },
    {
      "_path": "lib/python3.9/site-packages/setuptools/_vendor/packaging/tags.py",
      "path_type": "hardlink",
      "sha256": "34a312dfb668fe75ab67182c0facdb5ec5e073d79d9fd9b5eb470188b98725d1",
      "size_in_bytes": 24067
    },
    {
      "_path": "lib/python3.9/site-packages/setuptools/_vendor/packaging/utils.py",
      "path_type": "hardlink",
      "sha256": "452865be78ced82b58483f2eae2df67eb30c14c4e607ede286cab5fa08732c4c",
      "size_in_bytes": 1811
    },
    {
      "_path": "lib/python3.9/site-packages/setuptools/_vendor/packaging/version.py",
      "path_type": "hardlink",
      "sha256": "0a76e6f8e3bd0ffa9df194c5c7315c8d26af7b14981599b279aa0fbccb2380f7",
      "size_in_bytes": 15470
    },
    {
      "_path": "lib/python3.9/site-packages/setuptools/_vendor/pyparsing.py",
      "path_type": "hardlink",
      "sha256": "99a86d920729de0acd003d2b7bff51d032ef067be3ce978bc2026a4fedc7d421",
      "size_in_bytes": 232056
    },
    {
      "_path": "lib/python3.9/site-packages/setuptools/archive_util.py",
      "path_type": "hardlink",
      "sha256": "99a2436e8cd16c37923f0e77553d1c6ff212dd6d00a7bde5251f2d5fc4590f1d",
      "size_in_bytes": 7077
    },
    {
      "_path": "lib/python3.9/site-packages/setuptools/build_meta.py",
      "path_type": "hardlink",
      "sha256": "c7b148d543ca08ac41052a295e871f1839c96bdf2b40ef1ab4a5d2c09b5d89df",
      "size_in_bytes": 10280
    },
    {
      "_path": "lib/python3.9/site-packages/setuptools/cli-32.exe",
      "path_type": "hardlink",
      "sha256": "75f12ea2f30d9c0d872dade345f30f562e6d93847b6a509ba53beec6d0b2c346",
      "size_in_bytes": 65536
    },
    {
      "_path": "lib/python3.9/site-packages/setuptools/cli-64.exe",
      "path_type": "hardlink",
      "sha256": "28b001bb9a72ae7a24242bfab248d767a1ac5dec981c672a3944f7a072375e9a",
      "size_in_bytes": 74752
    },
    {
      "_path": "lib/python3.9/site-packages/setuptools/cli.exe",
      "path_type": "hardlink",
      "sha256": "75f12ea2f30d9c0d872dade345f30f562e6d93847b6a509ba53beec6d0b2c346",
      "size_in_bytes": 65536
    },
    {
      "_path": "lib/python3.9/site-packages/setuptools/command/__init__.py",
      "path_type": "hardlink",
      "sha256": "7bef1324e8a451edd2b747f0d9bda9f6ee440dd4b1979cc75012492a27db710f",
      "size_in_bytes": 217
    },
    {
      "_path": "lib/python3.9/site-packages/setuptools/command/__pycache__/__init__.cpython-39.pyc",
      "path_type": "hardlink",
      "sha256": "ce2e1d99092f0a5f7d5f5c67574a44709aecd7a966783949c104ad09bf55c5c4",
      "size_in_bytes": 338
    },
    {
      "_path": "lib/python3.9/site-packages/setuptools/command/__pycache__/alias.cpython-39.pyc",
      "path_type": "hardlink",
      "sha256": "3c14d2394ecb3ed8bc83d47f3898679b61f68425b5c11f9cf462c5fae42d47c5",
      "size_in_bytes": 2332
    },
    {
      "_path": "lib/python3.9/site-packages/setuptools/command/__pycache__/bdist_egg.cpython-39.pyc",
      "path_type": "hardlink",
      "sha256": "d9bd0bb483e5bd867507e591f99c6540e2ef710fb0c2e4c9557dcd16e6ace15d",
      "size_in_bytes": 12998
    },
    {
      "_path": "lib/python3.9/site-packages/setuptools/command/__pycache__/bdist_rpm.cpython-39.pyc",
      "path_type": "hardlink",
      "sha256": "4aae826682073a068a6df9f40698cdfe87f1b2d15393fe3e62cbd9dcb51f5502",
      "size_in_bytes": 1318
    },
    {
      "_path": "lib/python3.9/site-packages/setuptools/command/__pycache__/build_clib.cpython-39.pyc",
      "path_type": "hardlink",
      "sha256": "f44a5fb816f44b8ca557edc89fadf02c03848cce885126aaf517cd574e5fa0ac",
      "size_in_bytes": 2429
    },
    {
      "_path": "lib/python3.9/site-packages/setuptools/command/__pycache__/build_ext.cpython-39.pyc",
      "path_type": "hardlink",
      "sha256": "ad6566a456894b8764c4c08da3b306569626b65031306b0629f188b74978e923",
      "size_in_bytes": 9788
    },
    {
      "_path": "lib/python3.9/site-packages/setuptools/command/__pycache__/build_py.cpython-39.pyc",
      "path_type": "hardlink",
      "sha256": "677610ea575e0dc285f26cd60dec299d26898806748dc44b261871b30cfedce3",
      "size_in_bytes": 7779
    },
    {
      "_path": "lib/python3.9/site-packages/setuptools/command/__pycache__/develop.cpython-39.pyc",
      "path_type": "hardlink",
      "sha256": "fc420a9305814935a54bfdc640f93e22d188ce2a96ba90f4c0bc2075ba264c42",
      "size_in_bytes": 6098
    },
    {
      "_path": "lib/python3.9/site-packages/setuptools/command/__pycache__/dist_info.cpython-39.pyc",
      "path_type": "hardlink",
      "sha256": "bb23d2e4d904c48fe950497b1a6380da0af26712814626bb2691e35ef3fd2799",
      "size_in_bytes": 1356
    },
    {
      "_path": "lib/python3.9/site-packages/setuptools/command/__pycache__/easy_install.cpython-39.pyc",
      "path_type": "hardlink",
      "sha256": "108c73ec530ba5cfbfb96ad4e09e6a50098ac45af3295bf5b50e4684c04519fa",
      "size_in_bytes": 63546
    },
    {
      "_path": "lib/python3.9/site-packages/setuptools/command/__pycache__/egg_info.cpython-39.pyc",
      "path_type": "hardlink",
      "sha256": "519503db7ddc76ef4f957eb1f51552ffb09ff6a88cdacc5d895152f77fcaa157",
      "size_in_bytes": 21939
    },
    {
      "_path": "lib/python3.9/site-packages/setuptools/command/__pycache__/install.cpython-39.pyc",
      "path_type": "hardlink",
      "sha256": "a280aed25354e978d55c73b636abd57eaa8ddca12379404243e5d31f25092e01",
      "size_in_bytes": 3997
    },
    {
      "_path": "lib/python3.9/site-packages/setuptools/command/__pycache__/install_egg_info.cpython-39.pyc",
      "path_type": "hardlink",
      "sha256": "c41b9812a6f1b13c4756e3dc2de1f0497e89f4e4b74a64fc0daa1612bc50377e",
      "size_in_bytes": 2388
    },
    {
      "_path": "lib/python3.9/site-packages/setuptools/command/__pycache__/install_lib.cpython-39.pyc",
      "path_type": "hardlink",
      "sha256": "8c1c4ad7ac6b453275ac4285cfc36b9a7534e19f08750c2c9fd2c806f07de4ed",
      "size_in_bytes": 4095
    },
    {
      "_path": "lib/python3.9/site-packages/setuptools/command/__pycache__/install_scripts.cpython-39.pyc",
      "path_type": "hardlink",
      "sha256": "9cea7e9201bd83d3e85edd78bc65bc4d02a2e27a366a03773dcc0e01f9b33ca1",
      "size_in_bytes": 2383
    },
    {
      "_path": "lib/python3.9/site-packages/setuptools/command/__pycache__/py36compat.cpython-39.pyc",
      "path_type": "hardlink",
      "sha256": "5720fbbebad98bcffad2d640cd2bb356cb23a8dd9710454e936888928af1054b",
      "size_in_bytes": 4550
    },
    {
      "_path": "lib/python3.9/site-packages/setuptools/command/__pycache__/register.cpython-39.pyc",
      "path_type": "hardlink",
      "sha256": "dfec423bac817089fd83c40484db8fed1f8289ab4c23695a4d160cddc6bd7aa2",
      "size_in_bytes": 806
    },
    {
      "_path": "lib/python3.9/site-packages/setuptools/command/__pycache__/rotate.cpython-39.pyc",
      "path_type": "hardlink",
      "sha256": "e2bef98a8f126275e35d432fd5765b73e08e07a65e12187ce59f0793305cc571",
      "size_in_bytes": 2465
    },
    {
      "_path": "lib/python3.9/site-packages/setuptools/command/__pycache__/saveopts.cpython-39.pyc",
      "path_type": "hardlink",
      "sha256": "88ab96ef1ee1f8ea0f2069ad2cc6b550f98866379c64f439f295bf539e9835a0",
      "size_in_bytes": 884
    },
    {
      "_path": "lib/python3.9/site-packages/setuptools/command/__pycache__/sdist.cpython-39.pyc",
      "path_type": "hardlink",
      "sha256": "4f9d4ac3ce4f85f82151808ca55ab3eabb8e6c2c469d8cd6ecce6202f5f2f066",
      "size_in_bytes": 6425
    },
    {
      "_path": "lib/python3.9/site-packages/setuptools/command/__pycache__/setopt.cpython-39.pyc",
      "path_type": "hardlink",
      "sha256": "71f9a4d90f21d14a4626922426f1ec35be7da95b9f0280e838b91db437a491fc",
      "size_in_bytes": 4635
    },
    {
      "_path": "lib/python3.9/site-packages/setuptools/command/__pycache__/test.cpython-39.pyc",
      "path_type": "hardlink",
      "sha256": "93fb4c49f47493f2d78300053718670208226bcf6b4cc3898115800d6ba67201",
      "size_in_bytes": 7990
    },
    {
      "_path": "lib/python3.9/site-packages/setuptools/command/__pycache__/upload.cpython-39.pyc",
      "path_type": "hardlink",
      "sha256": "04ad5cb7439bfbd905c5431fbcfca6a90f704e45e7cf414773a2a8fa54de436b",
      "size_in_bytes": 779
    },
    {
      "_path": "lib/python3.9/site-packages/setuptools/command/__pycache__/upload_docs.cpython-39.pyc",
      "path_type": "hardlink",
      "sha256": "7e36cc8b2cd8ec671af279886ab2c03b921ca7b44619f88a4ab685b4e2271c5b",
      "size_in_bytes": 6122
    },
    {
      "_path": "lib/python3.9/site-packages/setuptools/command/alias.py",
      "path_type": "hardlink",
      "sha256": "d6c2d0c5970d87a7434290e69b81bb506193a25f379d8d4d4cf98d05b9b6b222",
      "size_in_bytes": 2381
    },
    {
      "_path": "lib/python3.9/site-packages/setuptools/command/bdist_egg.py",
      "path_type": "hardlink",
      "sha256": "faea6207a7c5b66f1c412423d4b4435691b5f93d78dc3b170af5747e1d37bbb5",
      "size_in_bytes": 16604
    },
    {
      "_path": "lib/python3.9/site-packages/setuptools/command/bdist_rpm.py",
      "path_type": "hardlink",
      "sha256": "ff863bb55033bb5cc4b8373cb6945d13fb32df3493de1dcb3d3b738a8a2ce429",
      "size_in_bytes": 900
    },
    {
      "_path": "lib/python3.9/site-packages/setuptools/command/build_clib.py",
      "path_type": "hardlink",
      "sha256": "7d61d2146924d7454275d0560accef361a306c6f59f42657563436b92227a0eb",
      "size_in_bytes": 4415
    },
    {
      "_path": "lib/python3.9/site-packages/setuptools/command/build_ext.py",
      "path_type": "hardlink",
      "sha256": "48d2b4e361df0767b394341b49544616a23520ce40e00b23535c295777e0b241",
      "size_in_bytes": 13212
    },
    {
      "_path": "lib/python3.9/site-packages/setuptools/command/build_py.py",
      "path_type": "hardlink",
      "sha256": "5327637255e5e854b2acf8d738ec190fe8076f2d2d20aa0ffaabb98adbf23f48",
      "size_in_bytes": 8276
    },
    {
      "_path": "lib/python3.9/site-packages/setuptools/command/develop.py",
      "path_type": "hardlink",
      "sha256": "e7f4acec435dd7f07f8d5318d6d179515ff2d57bba8db57300f1bca0a7a5b860",
      "size_in_bytes": 7012
    },
    {
      "_path": "lib/python3.9/site-packages/setuptools/command/dist_info.py",
      "path_type": "hardlink",
      "sha256": "e6dea439fadd8002d3f8fde882cb3a3c5f64f8b7b27acb9ec9cba4ddd5326672",
      "size_in_bytes": 960
    },
    {
      "_path": "lib/python3.9/site-packages/setuptools/command/easy_install.py",
      "path_type": "hardlink",
      "sha256": "68d276d539ca3eee49c76ff7d356335ba8bc7899312ea7e8110588dfde6e5f84",
      "size_in_bytes": 85341
    },
    {
      "_path": "lib/python3.9/site-packages/setuptools/command/egg_info.py",
      "path_type": "hardlink",
      "sha256": "b1ef85858235b1933329dea59dd57ffaf364277d615f81d8e1970c52eef597d9",
      "size_in_bytes": 25335
    },
    {
      "_path": "lib/python3.9/site-packages/setuptools/command/install.py",
      "path_type": "hardlink",
      "sha256": "f1da0cc5e4040e82b811ca3498ed969575f3ce9f509ec18943b67bc969193c6f",
      "size_in_bytes": 4705
    },
    {
      "_path": "lib/python3.9/site-packages/setuptools/command/install_egg_info.py",
      "path_type": "hardlink",
      "sha256": "6cc81e21e4625f34380c018f575df6f24723c108c78ce594e059e00162d5efc4",
      "size_in_bytes": 2203
    },
    {
      "_path": "lib/python3.9/site-packages/setuptools/command/install_lib.py",
      "path_type": "hardlink",
      "sha256": "533e3631cb321d9023ac1e9cc3d13b073d31b1a4dbcf19ccd4f23d0818623ed1",
      "size_in_bytes": 3875
    },
    {
      "_path": "lib/python3.9/site-packages/setuptools/command/install_scripts.py",
      "path_type": "hardlink",
      "sha256": "a348cdfdec7bc98624f16e5c97299314e5f090530acd6f6aff377d36971ec7b3",
      "size_in_bytes": 2593
    },
    {
      "_path": "lib/python3.9/site-packages/setuptools/command/launcher manifest.xml",
      "path_type": "hardlink",
      "sha256": "c652db8d6ac1d35b4a0b4fa195590e2a48923dbccc9a5d9e38fb49fee7029db1",
      "size_in_bytes": 628
    },
    {
      "_path": "lib/python3.9/site-packages/setuptools/command/py36compat.py",
      "path_type": "hardlink",
      "sha256": "ef22d6cd08f5efd127c77a49f15d5c0c30b378b30531df5725794afa2653ab96",
      "size_in_bytes": 4946
    },
    {
      "_path": "lib/python3.9/site-packages/setuptools/command/register.py",
      "path_type": "hardlink",
      "sha256": "924dc3c5709be655d3bea9e17f0c7683aabb8b06d49a04f25d409a068a013949",
      "size_in_bytes": 468
    },
    {
      "_path": "lib/python3.9/site-packages/setuptools/command/rotate.py",
      "path_type": "hardlink",
      "sha256": "4afb103dab1ecc8a233e3bcc9df92ace1f0fd14d2d0a3d1d69ccc5f2e7373503",
      "size_in_bytes": 2128
    },
    {
      "_path": "lib/python3.9/site-packages/setuptools/command/saveopts.py",
      "path_type": "hardlink",
      "sha256": "cdaed00817108a628aae259ca0271b8713e3533df481207be33b932f8ef1a4fe",
      "size_in_bytes": 658
    },
    {
      "_path": "lib/python3.9/site-packages/setuptools/command/sdist.py",
      "path_type": "hardlink",
      "sha256": "a44305d06315b9ace734ae8615a98ae064971bdfea79fd2273ccfb8c4b0f98aa",
      "size_in_bytes": 5967
    },
    {
      "_path": "lib/python3.9/site-packages/setuptools/command/setopt.py",
      "path_type": "hardlink",
      "sha256": "a24c61a83d4d3359d095b4950c236fe8fed8ee0ebcd2c736afeb545bbc0f1f56",
      "size_in_bytes": 5086
    },
    {
      "_path": "lib/python3.9/site-packages/setuptools/command/test.py",
      "path_type": "hardlink",
      "sha256": "a8663e1f1d513c29dd955876aecac4b39e3bf42826c51b2b11f9552ebf7c8d50",
      "size_in_bytes": 8088
    },
    {
      "_path": "lib/python3.9/site-packages/setuptools/command/upload.py",
      "path_type": "hardlink",
      "sha256": "5d3dd81557d83c0980e6a8468347ae96e53df1fb714545be3f329c38330bc54b",
      "size_in_bytes": 462
    },
    {
      "_path": "lib/python3.9/site-packages/setuptools/command/upload_docs.py",
      "path_type": "hardlink",
      "sha256": "6dae643b279d0ffbbadb07a29ebc6aaa7be9b90bc122e6a65de8491bab40bced",
      "size_in_bytes": 7218
    },
    {
      "_path": "lib/python3.9/site-packages/setuptools/config.py",
      "path_type": "hardlink",
      "sha256": "b26f596f3897f4394eba07159486e1aadb4c270c70ce7184b24f360fc3156833",
      "size_in_bytes": 23123
    },
    {
      "_path": "lib/python3.9/site-packages/setuptools/dep_util.py",
      "path_type": "hardlink",
      "sha256": "043c75064ccd427b6f001e1a972a476d6e54541ce3aad86cd34d0fad42f866a7",
      "size_in_bytes": 949
    },
    {
      "_path": "lib/python3.9/site-packages/setuptools/depends.py",
      "path_type": "hardlink",
      "sha256": "8877d974b7650aed81965485f5b460ecd534a2a6cf58c1fc9639b806ec100d8d",
      "size_in_bytes": 5474
    },
    {
      "_path": "lib/python3.9/site-packages/setuptools/dist.py",
      "path_type": "hardlink",
      "sha256": "719b4f3f3184852a263c7fef5c7fc378215eb6327d07c1eff155021b429b661f",
      "size_in_bytes": 43087
    },
    {
      "_path": "lib/python3.9/site-packages/setuptools/errors.py",
      "path_type": "hardlink",
      "sha256": "31539cbf7f351cd49a8c3804516cce43827a0790470813128c77da59c130035a",
      "size_in_bytes": 524
    },
    {
      "_path": "lib/python3.9/site-packages/setuptools/extension.py",
      "path_type": "hardlink",
      "sha256": "34c338e978cd7557a559e99cd31f02c95280e4ab3a666df14d6480d924bac593",
      "size_in_bytes": 1684
    },
    {
      "_path": "lib/python3.9/site-packages/setuptools/extern/__init__.py",
      "path_type": "hardlink",
      "sha256": "1e17fd5bbdd6022b70f5375125f0c86fa6058e62b9e8217ad5a7ddb35320d076",
      "size_in_bytes": 2407
    },
    {
      "_path": "lib/python3.9/site-packages/setuptools/extern/__pycache__/__init__.cpython-39.pyc",
      "path_type": "hardlink",
      "sha256": "daa201938e592be95ee1a7a87c530c6ee5eb4a3b39c07eeecde2aa9be4f035ae",
      "size_in_bytes": 2880
    },
    {
      "_path": "lib/python3.9/site-packages/setuptools/glob.py",
      "path_type": "hardlink",
      "sha256": "d686636df8c01d25db81d852b91e98194f232a86fd2fc36d126058a9c3d32d89",
      "size_in_bytes": 4873
    },
    {
      "_path": "lib/python3.9/site-packages/setuptools/gui-32.exe",
      "path_type": "hardlink",
      "sha256": "5c1af46c7300e87a73dacf6cf41ce397e3f05df6bd9c7e227b4ac59f85769160",
      "size_in_bytes": 65536
    },
    {
      "_path": "lib/python3.9/site-packages/setuptools/gui-64.exe",
      "path_type": "hardlink",
      "sha256": "69828c857d4824b9f850b1e0597d2c134c91114b7a0774c41dffe33b0eb23721",
      "size_in_bytes": 75264
    },
    {
      "_path": "lib/python3.9/site-packages/setuptools/gui.exe",
      "path_type": "hardlink",
      "sha256": "5c1af46c7300e87a73dacf6cf41ce397e3f05df6bd9c7e227b4ac59f85769160",
      "size_in_bytes": 65536
    },
    {
      "_path": "lib/python3.9/site-packages/setuptools/installer.py",
      "path_type": "hardlink",
      "sha256": "8db85bed9564355fdb4943207e72dc670d081ebe911059ca178a3bff526ac66d",
      "size_in_bytes": 3567
    },
    {
      "_path": "lib/python3.9/site-packages/setuptools/launch.py",
      "path_type": "hardlink",
      "sha256": "4f23d3f887354f612762f18edba81f3513f8cac065ae1a5b4634315ac88ee35e",
      "size_in_bytes": 812
    },
    {
      "_path": "lib/python3.9/site-packages/setuptools/monkey.py",
      "path_type": "hardlink",
      "sha256": "d1edc77552971cbe35e4eee7a7e014aa11055cf3ee0dd24a6c8e3b72143f0c4e",
      "size_in_bytes": 5217
    },
    {
      "_path": "lib/python3.9/site-packages/setuptools/msvc.py",
      "path_type": "hardlink",
      "sha256": "dcb2edf77f1ee8e47bc163f322f090bbb2c25994882aaa0a57ac37afc8d5de46",
      "size_in_bytes": 50561
    },
    {
      "_path": "lib/python3.9/site-packages/setuptools/namespaces.py",
      "path_type": "hardlink",
      "sha256": "3cca8654f5cf610823513bc483d6c671c440908383ad0e8d9ac0e0fdfc04af02",
      "size_in_bytes": 3093
    },
    {
      "_path": "lib/python3.9/site-packages/setuptools/package_index.py",
      "path_type": "hardlink",
      "sha256": "9fde5207929f85fd9083a3a06cec7c35e44e1b376b02ddc61e962fed5e46fc41",
      "size_in_bytes": 40106
    },
    {
      "_path": "lib/python3.9/site-packages/setuptools/py34compat.py",
      "path_type": "hardlink",
      "sha256": "29839deb26d1c63056f0d266603f2dfd4cb2566caca69157a87a452ddb251975",
      "size_in_bytes": 245
    },
    {
      "_path": "lib/python3.9/site-packages/setuptools/sandbox.py",
      "path_type": "hardlink",
      "sha256": "991f378be9aef99514ffb4da3206027914b2ce4aaff25a09fc647dc614b60c3c",
      "size_in_bytes": 14348
    },
    {
      "_path": "lib/python3.9/site-packages/setuptools/script (dev).tmpl",
      "path_type": "hardlink",
      "sha256": "454cd0cc2414697b7074bb581d661b21098e6844b906baaad45bd403fb6efb92",
      "size_in_bytes": 218
    },
    {
      "_path": "lib/python3.9/site-packages/setuptools/script.tmpl",
      "path_type": "hardlink",
      "sha256": "5864ede6989eccedbb73e0dbc7a9794384f715fdb4039cfbf3bda1bf76808586",
      "size_in_bytes": 138
    },
    {
      "_path": "lib/python3.9/site-packages/setuptools/unicode_utils.py",
      "path_type": "hardlink",
      "sha256": "68e385a38246c00b2206db46603b2a152ed8a9641e6768fa0d6882b9cb51ff4d",
      "size_in_bytes": 941
    },
    {
      "_path": "lib/python3.9/site-packages/setuptools/version.py",
      "path_type": "hardlink",
      "sha256": "a20fdcb9941bd1023aba429915f6563e5af51e02413cf9f6bceda6fdb23d6531",
      "size_in_bytes": 144
    },
    {
      "_path": "lib/python3.9/site-packages/setuptools/wheel.py",
      "path_type": "hardlink",
      "sha256": "d0ff2d4a4d74e6e17f51bfb7d0dd875365f6bfb30a0d2763a5e4254515b74a42",
      "size_in_bytes": 8288
    },
    {
      "_path": "lib/python3.9/site-packages/setuptools/windows_support.py",
      "path_type": "hardlink",
      "sha256": "e46adfa923f6f9d2c6268653ab683a7422a4c90c716b69f92108979490a86041",
      "size_in_bytes": 714
    }
  ],
  "paths_version": 1
}