{
  "arch": null,
  "build": "pyhd3eb1b0_1",
  "build_number": 1,
  "depends": [
    "cryptography >=3.3",
    "python",
    "six >=1.5.2"
  ],
  "license": "Apache 2.0",
  "license_family": "Apache",
  "name": "pyopenssl",
  "noarch": "python",
  "platform": null,
  "subdir": "noarch",
  "timestamp": 1635333128254,
  "version": "21.0.0"
}